{
  "$schema": "https://raw.githubusercontent.com/jetify-com/devbox/0.11.0/.schema/devbox.schema.json",
  "packages": [
    "clojure@latest",
    "polylith@latest"
  ],
  "shell": {
    "init_hook": [
      "echo 'Welcome to devbox!' > /dev/null"
    ],
    "scripts": {
      "test": [
        "echo \"Error: no test specified\" && exit 1"
      ]
    }
  }
}
