{
  "$schema": "./node_modules/nx/schemas/nx-schema.json",
  "targetDefaults": {
    "build": {
      "dependsOn": ["^build"],
      "outputs": ["{projectRoot}/dist"],
      "cache": true
    },
    "dev": {
      "dependsOn": ["^dev"]
    }
  },
  "defaultBase": "main",
  "plugins": [
    {
      "plugin": "@nx/remix/plugin",
      "options": {
        "startTargetName": "start",
        "buildTargetName": "build",
        "devTargetName": "dev",
        "typecheckTargetName": "typecheck",
        "staticServeTargetName": "static-serve"
      }
    }
  ]
}
